[
    {
        "extra_notes": null,
        "version": "devswan"
    },
    {
        "extra_notes": null,
        "version": "devnxcals"
    },
    {
        "extra_notes": null,
        "version": "devgeantv"
    },
    {
        "extra_notes": null,
        "version": "devBE"
    },
    {
        "extra_notes": null,
        "version": "devARM"
    },
    {
        "extra_notes": null,
        "version": "dev4python39"
    },
    {
        "extra_notes": null,
        "version": "dev4python3"
    },
    {
        "extra_notes": null,
        "version": "dev4python2"
    },
    {
        "extra_notes": null,
        "version": "dev4lhcb"
    },
    {
        "extra_notes": null,
        "version": "dev4cuda"
    },
    {
        "extra_notes": null,
        "version": "dev4"
    },
    {
        "extra_notes": null,
        "version": "dev3python39"
    },
    {
        "extra_notes": null,
        "version": "dev3python3"
    },
    {
        "extra_notes": null,
        "version": "dev3python2"
    },
    {
        "extra_notes": null,
        "version": "dev3lhcb"
    },
    {
        "extra_notes": null,
        "version": "dev3cuda"
    },
    {
        "extra_notes": null,
        "version": "dev3"
    },
    {
        "extra_notes": null,
        "version": "99python2"
    },
    {
        "extra_notes": null,
        "version": "99_LHCB_5"
    },
    {
        "extra_notes": null,
        "version": "99_LHCB_4"
    },
    {
        "extra_notes": null,
        "version": "99_LHCB_1"
    },
    {
        "extra_notes": null,
        "version": "99cuda"
    },
    {
        "extra_notes": null,
        "version": "99"
    },
    {
        "extra_notes": null,
        "version": "98python3spark3"
    },
    {
        "extra_notes": null,
        "version": "98python3_ATLAS_9"
    },
    {
        "extra_notes": null,
        "version": "98python3_ATLAS_8"
    },
    {
        "extra_notes": null,
        "version": "98python3_ATLAS_7"
    },
    {
        "extra_notes": null,
        "version": "98python3_ATLAS_6"
    },
    {
        "extra_notes": null,
        "version": "98python3_ATLAS_5"
    },
    {
        "extra_notes": null,
        "version": "98python3_ATLAS_4"
    },
    {
        "extra_notes": null,
        "version": "98python3_ATLAS_3"
    },
    {
        "extra_notes": null,
        "version": "98python3_ATLAS_2"
    },
    {
        "extra_notes": null,
        "version": "98python3_ATLAS_11"
    },
    {
        "extra_notes": null,
        "version": "98python3_ATLAS_10"
    },
    {
        "extra_notes": null,
        "version": "98python3_ATLAS_1"
    },
    {
        "extra_notes": null,
        "version": "98python3"
    },
    {
        "extra_notes": null,
        "version": "98py3cu10"
    },
    {
        "extra_notes": null,
        "version": "98"
    },
    {
        "extra_notes": null,
        "version": "97rc2"
    },
    {
        "extra_notes": null,
        "version": "97python3"
    },
    {
        "extra_notes": null,
        "version": "97py3cu10"
    },
    {
        "extra_notes": null,
        "version": "97_LHCB_1"
    },
    {
        "extra_notes": null,
        "version": "97_FCC_2"
    },
    {
        "extra_notes": null,
        "version": "97_FCC_1"
    },
    {
        "extra_notes": null,
        "version": "97_ATLAS_1"
    },
    {
        "extra_notes": null,
        "version": "97apython3spark3"
    },
    {
        "extra_notes": null,
        "version": "97apython3_LHCB_6"
    },
    {
        "extra_notes": null,
        "version": "97apython3_LHCB_5"
    },
    {
        "extra_notes": null,
        "version": "97apython3_LHCB_4"
    },
    {
        "extra_notes": null,
        "version": "97apython3_LHCB_3"
    },
    {
        "extra_notes": null,
        "version": "97apython3_LHCB_2"
    },
    {
        "extra_notes": null,
        "version": "97apython3_ATLAS_3"
    },
    {
        "extra_notes": null,
        "version": "97apython3_ATLAS_2"
    },
    {
        "extra_notes": null,
        "version": "97apython3_ATLAS_1"
    },
    {
        "extra_notes": null,
        "version": "97apython3"
    },
    {
        "extra_notes": null,
        "version": "97a_LHCB_6"
    },
    {
        "extra_notes": null,
        "version": "97a_LHCB_5"
    },
    {
        "extra_notes": null,
        "version": "97a_LHCB_4"
    },
    {
        "extra_notes": null,
        "version": "97a_LHCB_3"
    },
    {
        "extra_notes": null,
        "version": "97a_LHCB_2"
    },
    {
        "extra_notes": null,
        "version": "97a_LHCB_1"
    },
    {
        "extra_notes": null,
        "version": "97a_FCC_5"
    },
    {
        "extra_notes": null,
        "version": "97a_FCC_4"
    },
    {
        "extra_notes": null,
        "version": "97a_FCC_3_rc1"
    },
    {
        "extra_notes": null,
        "version": "97a_FCC_3"
    },
    {
        "extra_notes": null,
        "version": "97a_FCC_2"
    },
    {
        "extra_notes": null,
        "version": "97a_FCC_1"
    },
    {
        "extra_notes": null,
        "version": "97a_ATLAS_3"
    },
    {
        "extra_notes": null,
        "version": "97a_ATLAS_2"
    },
    {
        "extra_notes": null,
        "version": "97a_ATLAS_1"
    },
    {
        "extra_notes": null,
        "version": "97a"
    },
    {
        "extra_notes": null,
        "version": "97"
    },
    {
        "extra_notes": null,
        "version": "96rc1"
    },
    {
        "extra_notes": null,
        "version": "96python3rc1"
    },
    {
        "extra_notes": null,
        "version": "96python3"
    },
    {
        "extra_notes": null,
        "version": "96_NA62_b"
    },
    {
        "extra_notes": null,
        "version": "96_NA62_a"
    },
    {
        "extra_notes": null,
        "version": "96c_LS_FCC_1"
    },
    {
        "extra_notes": null,
        "version": "96c_LS"
    },
    {
        "extra_notes": null,
        "version": "96bpython3"
    },
    {
        "extra_notes": null,
        "version": "96b"
    },
    {
        "extra_notes": null,
        "version": "96"
    },
    {
        "extra_notes": null,
        "version": "95rc1python3"
    },
    {
        "extra_notes": null,
        "version": "95rc1"
    },
    {
        "extra_notes": null,
        "version": "95nxcalspython3"
    },
    {
        "extra_notes": null,
        "version": "95apython3"
    },
    {
        "extra_notes": null,
        "version": "95a"
    },
    {
        "extra_notes": null,
        "version": "95"
    },
    {
        "extra_notes": null,
        "version": "94rc1"
    },
    {
        "extra_notes": null,
        "version": "94python3"
    },
    {
        "extra_notes": null,
        "version": "94a"
    },
    {
        "extra_notes": null,
        "version": "94"
    },
    {
        "extra_notes": null,
        "version": "93python3"
    },
    {
        "extra_notes": null,
        "version": "93c"
    },
    {
        "extra_notes": null,
        "version": "93a"
    },
    {
        "extra_notes": null,
        "version": "93"
    },
    {
        "extra_notes": null,
        "version": "92python3"
    },
    {
        "extra_notes": null,
        "version": "92"
    },
    {
        "extra_notes": null,
        "version": "91python3"
    },
    {
        "extra_notes": null,
        "version": "91a"
    },
    {
        "extra_notes": null,
        "version": "91"
    },
    {
        "extra_notes": null,
        "version": "90a"
    },
    {
        "extra_notes": null,
        "version": "90"
    },
    {
        "extra_notes": null,
        "version": "89python3"
    },
    {
        "extra_notes": null,
        "version": "89"
    },
    {
        "extra_notes": null,
        "version": "88b"
    },
    {
        "extra_notes": null,
        "version": "88a"
    },
    {
        "extra_notes": null,
        "version": "88"
    },
    {
        "extra_notes": null,
        "version": "87"
    },
    {
        "extra_notes": null,
        "version": "86"
    },
    {
        "extra_notes": null,
        "version": "85swan3"
    },
    {
        "extra_notes": null,
        "version": "85swan2"
    },
    {
        "extra_notes": null,
        "version": "85b"
    },
    {
        "extra_notes": null,
        "version": "85a"
    },
    {
        "extra_notes": null,
        "version": "85"
    },
    {
        "extra_notes": null,
        "version": "84swan3"
    },
    {
        "extra_notes": null,
        "version": "84swan2"
    },
    {
        "extra_notes": null,
        "version": "84swan1"
    },
    {
        "extra_notes": null,
        "version": "84"
    },
    {
        "extra_notes": null,
        "version": "83"
    },
    {
        "extra_notes": null,
        "version": "82"
    },
    {
        "extra_notes": null,
        "version": "81f"
    },
    {
        "extra_notes": null,
        "version": "81e"
    },
    {
        "extra_notes": null,
        "version": "81d"
    },
    {
        "extra_notes": null,
        "version": "81c"
    },
    {
        "extra_notes": null,
        "version": "81b"
    },
    {
        "extra_notes": null,
        "version": "81a"
    },
    {
        "extra_notes": null,
        "version": "80"
    },
    {
        "extra_notes": null,
        "version": "79"
    },
    {
        "extra_notes": null,
        "version": "78root6"
    },
    {
        "extra_notes": null,
        "version": "77root6"
    },
    {
        "extra_notes": null,
        "version": "76root6"
    },
    {
        "extra_notes": null,
        "version": "75root6"
    },
    {
        "extra_notes": null,
        "version": "74root6"
    },
    {
        "extra_notes": null,
        "version": "73root6"
    },
    {
        "extra_notes": null,
        "version": "72root6"
    },
    {
        "extra_notes": null,
        "version": "72a"
    },
    {
        "extra_notes": null,
        "version": "71root6"
    },
    {
        "extra_notes": null,
        "version": "71"
    },
    {
        "extra_notes": null,
        "version": "70root6"
    },
    {
        "extra_notes": null,
        "version": "70"
    },
    {
        "extra_notes": null,
        "version": "69root6"
    },
    {
        "extra_notes": null,
        "version": "69"
    },
    {
        "extra_notes": null,
        "version": "68root6"
    },
    {
        "extra_notes": null,
        "version": "68"
    },
    {
        "extra_notes": null,
        "version": "67a"
    },
    {
        "extra_notes": null,
        "version": "67"
    },
    {
        "extra_notes": null,
        "version": "66"
    },
    {
        "extra_notes": null,
        "version": "65a"
    },
    {
        "extra_notes": null,
        "version": "65"
    },
    {
        "extra_notes": null,
        "version": "64d"
    },
    {
        "extra_notes": null,
        "version": "64c"
    },
    {
        "extra_notes": null,
        "version": "64b"
    },
    {
        "extra_notes": null,
        "version": "64a"
    },
    {
        "extra_notes": null,
        "version": "64"
    },
    {
        "extra_notes": null,
        "version": "63"
    },
    {
        "extra_notes": null,
        "version": "62b"
    },
    {
        "extra_notes": null,
        "version": "62a"
    },
    {
        "extra_notes": null,
        "version": "62"
    },
    {
        "extra_notes": null,
        "version": "61g"
    },
    {
        "extra_notes": null,
        "version": "61f"
    },
    {
        "extra_notes": null,
        "version": "61e"
    },
    {
        "extra_notes": null,
        "version": "61d"
    },
    {
        "extra_notes": null,
        "version": "61c"
    },
    {
        "extra_notes": null,
        "version": "61b"
    },
    {
        "extra_notes": null,
        "version": "61a"
    },
    {
        "extra_notes": null,
        "version": "61"
    },
    {
        "extra_notes": null,
        "version": "104swan"
    },
    {
        "extra_notes": null,
        "version": "104_LHCB_Core"
    },
    {
        "extra_notes": null,
        "version": "104cuda"
    },
    {
        "extra_notes": null,
        "version": "104_ATLAS_2"
    },
    {
        "extra_notes": null,
        "version": "104_ATLAS_1"
    },
    {
        "extra_notes": null,
        "version": "104a"
    },
    {
        "extra_notes": null,
        "version": "104"
    },
    {
        "extra_notes": null,
        "version": "103swan"
    },
    {
        "extra_notes": null,
        "version": "103_LHCB_Core"
    },
    {
        "extra_notes": null,
        "version": "103_LHCB_7"
    },
    {
        "extra_notes": null,
        "version": "103cuda"
    },
    {
        "extra_notes": null,
        "version": "103"
    },
    {
        "extra_notes": null,
        "version": "102swan"
    },
    {
        "extra_notes": null,
        "version": "102rc1_LHCB_7"
    },
    {
        "extra_notes": null,
        "version": "102rc1_ATLAS_14"
    },
    {
        "extra_notes": null,
        "version": "102rc1"
    },
    {
        "extra_notes": null,
        "version": "102cuda"
    },
    {
        "extra_notes": null,
        "version": "102b_swan"
    },
    {
        "extra_notes": null,
        "version": "102b_nxcals_testbed"
    },
    {
        "extra_notes": null,
        "version": "102b_nxcals_pro_pytimber_pro"
    },
    {
        "extra_notes": null,
        "version": "102b_nxcals_pro_pytimber_beta"
    },
    {
        "extra_notes": null,
        "version": "102b_nxcals_pro"
    },
    {
        "extra_notes": null,
        "version": "102b_LHCB_Core"
    },
    {
        "extra_notes": null,
        "version": "102b_LHCB_7"
    },
    {
        "extra_notes": null,
        "version": "102b_cuda"
    },
    {
        "extra_notes": null,
        "version": "102b_ATLAS_9"
    },
    {
        "extra_notes": null,
        "version": "102b_ATLAS_7"
    },
    {
        "extra_notes": null,
        "version": "102b_ATLAS_6"
    },
    {
        "extra_notes": null,
        "version": "102b_ATLAS_5"
    },
    {
        "extra_notes": null,
        "version": "102b_ATLAS_4"
    },
    {
        "extra_notes": null,
        "version": "102b_ATLAS_3"
    },
    {
        "extra_notes": null,
        "version": "102b_ATLAS_28"
    },
    {
        "extra_notes": null,
        "version": "102b_ATLAS_27"
    },
    {
        "extra_notes": null,
        "version": "102b_ATLAS_26"
    },
    {
        "extra_notes": null,
        "version": "102b_ATLAS_25"
    },
    {
        "extra_notes": null,
        "version": "102b_ATLAS_23"
    },
    {
        "extra_notes": null,
        "version": "102b_ATLAS_22"
    },
    {
        "extra_notes": null,
        "version": "102b_ATLAS_21"
    },
    {
        "extra_notes": null,
        "version": "102b_ATLAS_2"
    },
    {
        "extra_notes": null,
        "version": "102b_ATLAS_19"
    },
    {
        "extra_notes": null,
        "version": "102b_ATLAS_18"
    },
    {
        "extra_notes": null,
        "version": "102b_ATLAS_17"
    },
    {
        "extra_notes": null,
        "version": "102b_ATLAS_16"
    },
    {
        "extra_notes": null,
        "version": "102b_ATLAS_15"
    },
    {
        "extra_notes": null,
        "version": "102b_ATLAS_14"
    },
    {
        "extra_notes": null,
        "version": "102b_ATLAS_13"
    },
    {
        "extra_notes": null,
        "version": "102b_ATLAS_12"
    },
    {
        "extra_notes": null,
        "version": "102b_ATLAS_11"
    },
    {
        "extra_notes": null,
        "version": "102b_ATLAS_10"
    },
    {
        "extra_notes": null,
        "version": "102b_ATLAS_1"
    },
    {
        "extra_notes": null,
        "version": "102b"
    },
    {
        "extra_notes": null,
        "version": "102_ATLAS_2"
    },
    {
        "extra_notes": null,
        "version": "102a"
    },
    {
        "extra_notes": null,
        "version": "102"
    },
    {
        "extra_notes": null,
        "version": "101swan"
    },
    {
        "extra_notes": null,
        "version": "101_LHCB_7"
    },
    {
        "extra_notes": null,
        "version": "101cuda"
    },
    {
        "extra_notes": null,
        "version": "101_ATLAS_9"
    },
    {
        "extra_notes": null,
        "version": "101_ATLAS_8"
    },
    {
        "extra_notes": null,
        "version": "101_ATLAS_7A"
    },
    {
        "extra_notes": null,
        "version": "101_ATLAS_7"
    },
    {
        "extra_notes": null,
        "version": "101_ATLAS_6"
    },
    {
        "extra_notes": null,
        "version": "101_ATLAS_5"
    },
    {
        "extra_notes": null,
        "version": "101_ATLAS_4"
    },
    {
        "extra_notes": null,
        "version": "101_ATLAS_3"
    },
    {
        "extra_notes": null,
        "version": "101_ATLAS_28"
    },
    {
        "extra_notes": null,
        "version": "101_ATLAS_27"
    },
    {
        "extra_notes": null,
        "version": "101_ATLAS_26"
    },
    {
        "extra_notes": null,
        "version": "101_ATLAS_25"
    },
    {
        "extra_notes": null,
        "version": "101_ATLAS_24"
    },
    {
        "extra_notes": null,
        "version": "101_ATLAS_23"
    },
    {
        "extra_notes": null,
        "version": "101_ATLAS_22"
    },
    {
        "extra_notes": null,
        "version": "101_ATLAS_21"
    },
    {
        "extra_notes": null,
        "version": "101_ATLAS_20"
    },
    {
        "extra_notes": null,
        "version": "101_ATLAS_2"
    },
    {
        "extra_notes": null,
        "version": "101_ATLAS_18"
    },
    {
        "extra_notes": null,
        "version": "101_ATLAS_16"
    },
    {
        "extra_notes": null,
        "version": "101_ATLAS_15"
    },
    {
        "extra_notes": null,
        "version": "101_ATLAS_14"
    },
    {
        "extra_notes": null,
        "version": "101_ATLAS_13"
    },
    {
        "extra_notes": null,
        "version": "101_ATLAS_12"
    },
    {
        "extra_notes": null,
        "version": "101_ATLAS_11"
    },
    {
        "extra_notes": null,
        "version": "101_ATLAS_10"
    },
    {
        "extra_notes": null,
        "version": "101_ATLAS_1"
    },
    {
        "extra_notes": null,
        "version": "101arm_3"
    },
    {
        "extra_notes": null,
        "version": "101arm_2"
    },
    {
        "extra_notes": null,
        "version": "101arm"
    },
    {
        "extra_notes": null,
        "version": "101a_LHCB_7"
    },
    {
        "extra_notes": null,
        "version": "101"
    },
    {
        "extra_notes": null,
        "version": "100rc2"
    },
    {
        "extra_notes": null,
        "version": "100rc1"
    },
    {
        "extra_notes": null,
        "version": "100_nxcals_testbed"
    },
    {
        "extra_notes": null,
        "version": "100_nxcals_qa"
    },
    {
        "extra_notes": null,
        "version": "100_nxcals"
    },
    {
        "extra_notes": null,
        "version": "100_LHCB_7"
    },
    {
        "extra_notes": null,
        "version": "100_LHCB_6"
    },
    {
        "extra_notes": null,
        "version": "100_LHCB_5"
    },
    {
        "extra_notes": null,
        "version": "100cuda"
    },
    {
        "extra_notes": null,
        "version": "100_ATLAS_7"
    },
    {
        "extra_notes": null,
        "version": "100_ATLAS_6"
    },
    {
        "extra_notes": null,
        "version": "100_ATLAS_5"
    },
    {
        "extra_notes": null,
        "version": "100_ATLAS_4"
    },
    {
        "extra_notes": null,
        "version": "100_ATLAS_3"
    },
    {
        "extra_notes": null,
        "version": "100_ATLAS_2"
    },
    {
        "extra_notes": null,
        "version": "100_ATLAS_1"
    },
    {
        "extra_notes": null,
        "version": "100arm"
    },
    {
        "extra_notes": null,
        "version": "100"
    }
]